Japanese Share of US Auto Mkt,Kaizen Pubs,Lean Mfg Pubs,DFSS Pubs,QFD Pubs,Taguchi Methods Pubs,TQM Pubs
0,0,0,0,0,0,0
0,0,0,0,0,0,0
0,0,0,0,0,0,0
0,0,0,0,0,0,0
0,0,0,0,0,0,0
0,0,0,0,0,0,0
0,0,0,0,0,0,0
0,0,0,0,0,0,0
0,0,0,0,0,0,0
0,0,0,0,0,0,0
0,0,0,0,0,0,0
0,0,0,0,0,0,0
0,0,0,0,0,0,0
0,0,0,0,0,0,0
0,0,0,0,0,0,0
0,0,0,0,0,0,0
0,0,0,0,0,0,0
0,0,0,0,0,0,0
0,0,0,0,0,0,0
0,0,0,0,0,0,0
0,0,0,0,0,0,0
0,0,0,0,0,0,0
0,0,0,0,0,0,0
0,0,0,0,0,0,0
0,0,0,0,0,0,0
0,0,0,0,0,0,0
0,0,0,0,0,0,0
0,0,0,0,0,0,0
0,0,0,0,0,0,0
0,0,0,0,0,0,0
0,0,0,0,0,0,0
0,0,0,0,0,0,0
0,0,0,0,0,0,0
0,0,0,0,0,0,0
0,0,0,0,0,0,0
0,0,0,0,0,0,0
0,0,0,0,0,0,0
0,0,0,0,0,0,0
0,0,0,0,0,0,0
0,0,0,0,0,0,0
0,0,0,0,0,0,0
0,0,0,0,0,0,0
0,0,0,0,0,0,0
0,0,0,0,0,0,0
0,0,0,0,0,0,0
0.23,0,0,0,0,0,0
0.48,0,0,0,0,0,0
0.85,0,0,0,0,0,0
1.14,0,0,0,0,0,0
1.92,0,0,0,0,0,0
3.67,0,0,0,0,0,0
4.93,0,0,0,0,0,0
4.99,0,0,0,0,0,0
5.79,0,0,0,0,0,0
5.69,0,0,0,0,0,0
7.93,0,0,0,0,0,0
7.45,0,0,0,0,0,0
9.6,0,0,0,0,0,0
9.26,0,0,0,0,0,0
13.15,0,0,0,0,0,0
17.64,0,0,0,0,0,0
18.85,0,0,0,0,0,0
19.09,0,0,0,0,0,0
18.53,0,0,0,0,0,0
17.85,0,0,0,0,0,0
19.22,0,0.0008,0,0,0.0020,0
20.32,0,0.0000,0,0,0.0000,0
21.47,0,0.0000,0,0,0.0017,0
20.02,0,0.0000,0,0.0010,0.0003,0
21.53,0.0161,0.0000,0,0.0040,0.0020,0.0015
23.62,0.0121,0.0008,0,0.0020,0.0025,0.0084
25.4,0.0121,0.0016,0,0.0040,0.0079,0.0367
23.99,0.0202,0.0024,0,0.0050,0.0059,0.0589
22.73,0.0242,0.0082,0,0.0161,0.0079,0.0922
22.84,0.0484,0.0163,0,0.0212,0.0096,0.0849
22.35,0.0363,0.0155,0,0.0172,0.0093,0.0685
22.27,0.0565,0.0253,0,0.0272,0.0130,0.0650
23.08,0.0766,0.0204,0.0066,0.0353,0.0204,0.0608
23.35,0.0242,0.0326,0.0000,0.0343,0.0189,0.0562
23.35,0.0565,0.0245,0.0000,0.0333,0.0198,0.0394
25.00,0.0363,0.0416,0.0066,0.0252,0.0240,0.0356
26.29,0.0524,0.0432,0.0263,0.0343,0.0226,0.0344
27.21,0.0161,0.0326,0.0395,0.0333,0.0311,0.0252
28.39,0.0282,0.0359,0.0329,0.0424,0.0283,0.0356
29.90,0.0121,0.0302,0.0197,0.0353,0.0373,0.0298
31.47,0.0363,0.0473,0.0987,0.0616,0.0481,0.0318
33.97,0.0363,0.0685,0.0987,0.0686,0.0636,0.0298
36.35,0.0565,0.0710,0.1250,0.0706,0.0712,0.0237
38.91,0.0565,0.1101,0.0987,0.1009,0.0956,0.0314
39.77,0.0605,0.1101,0.1118,0.1120,0.0933,0.0394
38.11,0.0685,0.0783,0.1316,0.0737,0.1083,0.0379
34.30,0.0645,0.0938,0.1447,0.0838,0.1227,0.0463
36.27,0.0927,0.0889,0.0592,0.0575,0.1326,0.0264
